<svg width="52" height="52" viewBox="0 0 52 52" fill="none" xmlns="http://www.w3.org/2000/svg">
<g id="alert-circle-que">
<path id="Path" d="M25.0638 0C11.2432 0 0 11.2437 0 25.0638C0 38.8839 11.2432 50.1276 25.0638 50.1276C38.8844 50.1276 50.1276 38.8839 50.1276 25.0638C50.1276 11.2437 38.8844 0 25.0638 0Z" fill="#FF9A08"/>
<g id="Group 14">
<path id="Path_2" d="M29.6816 33.8814H26.3216V21.5614C26.3216 20.9429 25.8201 20.4414 25.2016 20.4414H20.7216C20.103 20.4414 19.6016 20.9429 19.6016 21.5614C19.6016 22.1799 20.103 22.6814 20.7216 22.6814H24.0816V33.8814H20.7216C20.103 33.8814 19.6016 34.3829 19.6016 35.0014C19.6016 35.6199 20.103 36.1214 20.7216 36.1214H29.6816C30.3001 36.1214 30.8016 35.6199 30.8016 35.0014C30.8016 34.3829 30.3001 33.8814 29.6816 33.8814Z" fill="white"/>
<circle id="Oval" cx="25.2009" cy="14.8416" r="2.24" fill="white"/>
</g>
</g>
</svg>
