<svg width="13" height="13" viewBox="0 0 13 13" fill="none" xmlns="http://www.w3.org/2000/svg">
<path fill-rule="evenodd" clip-rule="evenodd" d="M8.56216 7.93074L7.53526 9.21444C5.94479 8.2797 4.61932 6.95434 3.68446 5.36394L4.96816 4.33704C5.27749 4.08932 5.38099 3.66423 5.22016 3.30204L4.04986 0.667138C3.87664 0.276729 3.44623 0.0691405 3.03286 0.176638L0.805662 0.754438C0.375443 0.86684 0.0973031 1.28328 0.158262 1.72374C0.961399 7.44266 5.45624 11.9375 11.1752 12.7406C11.6155 12.8014 12.0318 12.5233 12.1442 12.0932L12.722 9.86574C12.8292 9.45248 12.6219 9.02226 12.2318 8.84874L9.59716 7.67874C9.23498 7.5178 8.80982 7.62132 8.56216 7.93074Z" fill="white"/>
</svg>
