<svg width="197" height="47" viewBox="0 0 197 47" fill="none" xmlns="http://www.w3.org/2000/svg">
<path fill-rule="evenodd" clip-rule="evenodd" d="M52.7334 23.368C52.7334 23.9722 52.8254 24.5739 53.0066 25.1755C53.1905 25.7797 53.4638 26.3183 53.8316 26.7912C54.1967 27.2641 54.6591 27.6529 55.2187 27.9524C55.7783 28.2545 56.4456 28.4042 57.2206 28.4042C57.9956 28.4042 58.6629 28.2545 59.2224 27.9524C59.782 27.6529 60.2444 27.2641 60.6096 26.7912C60.9747 26.3183 61.2506 25.7797 61.4319 25.1755C61.6158 24.5739 61.7077 23.9722 61.7077 23.368C61.7077 22.7664 61.6158 22.1701 61.4319 21.5763C61.2506 20.9852 60.9747 20.4519 60.6096 19.979C60.2444 19.5061 59.782 19.1226 59.2224 18.8336C58.6629 18.542 57.9956 18.3975 57.2206 18.3975C56.4456 18.3975 55.7783 18.542 55.2187 18.8336C54.6591 19.1226 54.1967 19.5061 53.8316 19.979C53.4638 20.4519 53.1905 20.9852 53.0066 21.5763C52.8254 22.1701 52.7334 22.7664 52.7334 23.368ZM48.7939 23.368C48.7939 22.1411 49.0146 21.0272 49.456 20.0263C49.8947 19.028 50.4937 18.1715 51.2477 17.4622C51.999 16.7502 52.8923 16.2012 53.9247 15.815C54.9598 15.4262 56.0553 15.2344 57.2192 15.2344C58.3804 15.2344 59.4785 15.4262 60.5109 15.815C61.5434 16.2012 62.4366 16.7502 63.1906 17.4622C63.9446 18.1715 64.541 19.028 64.9823 20.0263C65.4237 21.0272 65.6444 22.1411 65.6444 23.368C65.6444 24.5948 65.4237 25.714 64.9823 26.7255C64.541 27.7369 63.9446 28.6039 63.1906 29.3237C62.4366 30.0462 61.5434 30.611 60.5109 31.0208C59.4785 31.428 58.3804 31.633 57.2192 31.633C56.0553 31.633 54.9598 31.428 53.9247 31.0208C52.8923 30.611 51.999 30.0462 51.2477 29.3237C50.4937 28.6039 49.8947 27.7369 49.456 26.7255C49.0146 25.714 48.7939 24.5948 48.7939 23.368Z" fill="#141433"/>
<path fill-rule="evenodd" clip-rule="evenodd" d="M96.2958 21.8837C96.2958 21.3898 96.2249 20.9143 96.0857 20.4624C95.9464 20.0106 95.7257 19.6138 95.4236 19.2697C95.1215 18.9255 94.7406 18.6497 94.2782 18.4448C93.8158 18.2424 93.272 18.14 92.6494 18.14C91.4856 18.14 90.5004 18.4894 89.6939 19.1882C88.8873 19.8871 88.4407 20.7855 88.354 21.8837H96.2958ZM100.171 23.6281V24.143C100.171 24.3164 100.158 24.4872 100.137 24.6605H88.3538C88.3985 25.2201 88.543 25.7298 88.79 26.1948C89.0369 26.6572 89.3653 27.0539 89.7751 27.3875C90.1823 27.7212 90.6473 27.9839 91.1623 28.1782C91.6798 28.3727 92.2184 28.4699 92.7779 28.4699C93.7447 28.4699 94.5644 28.2913 95.2317 27.9366C95.8963 27.5819 96.4454 27.0933 96.8763 26.468L99.4587 28.5329C97.9324 30.6005 95.7151 31.633 92.8095 31.633C91.6036 31.633 90.4949 31.4438 89.4835 31.0681C88.4721 30.6924 87.5946 30.1591 86.8538 29.4708C86.1103 28.7825 85.5297 27.9366 85.1093 26.9357C84.6916 25.9347 84.4814 24.7998 84.4814 23.5309C84.4814 22.283 84.6916 21.1481 85.1093 20.1235C85.5297 19.1015 86.105 18.2319 86.838 17.5095C87.5683 16.7896 88.4353 16.2301 89.4362 15.8308C90.4372 15.4341 91.5169 15.2344 92.6807 15.2344C93.7552 15.2344 94.7509 15.4104 95.6651 15.7651C96.582 16.1224 97.3728 16.6478 98.0401 17.3492C98.7048 18.0481 99.2275 18.9203 99.6059 19.9632C99.9815 21.0062 100.171 22.2278 100.171 23.6281Z" fill="#141433"/>
<path fill-rule="evenodd" clip-rule="evenodd" d="M106.427 22.852L100.895 15.5879H105.501L108.824 20.3982L112.246 15.5879H116.659L111.158 22.852L117.508 31.1757H112.824L108.761 25.4345L104.667 31.1757H100.122L106.427 22.852Z" fill="#141433"/>
<path fill-rule="evenodd" clip-rule="evenodd" d="M74.9414 14.9883C70.968 14.9883 67.7471 18.2304 67.7471 22.2299V31.1756H71.6549V22.2299C71.6549 20.4032 73.1266 18.724 74.9414 18.724C76.7562 18.724 78.228 20.4032 78.228 22.2299V31.1756H82.1358V22.2299C82.1358 18.2304 78.9148 14.9883 74.9414 14.9883Z" fill="#141433"/>
<path fill-rule="evenodd" clip-rule="evenodd" d="M136.204 19.283C135.835 18.9303 135.221 18.5817 134.617 18.3467C133.96 18.0909 133.203 17.9631 132.476 17.9631C131.836 17.9631 131.253 18.0952 130.724 18.3596C130.195 18.6239 129.931 19.0644 129.931 19.6811C129.931 20.2979 130.223 20.7327 130.806 20.9866C131.391 21.2393 132.244 21.499 133.368 21.7633C133.963 21.8954 134.564 22.0717 135.17 22.292C135.776 22.5122 136.326 22.8032 136.823 23.1672C137.318 23.5301 137.72 23.9822 138.029 24.5225C138.337 25.0615 138.492 25.7178 138.492 26.4887C138.492 27.4579 138.311 28.2787 137.946 28.9499C137.583 29.6223 137.098 30.1672 136.492 30.5857C135.886 31.0042 135.181 31.3079 134.377 31.4946C133.572 31.6812 132.741 31.7751 131.881 31.7751C130.646 31.7751 129.449 31.5423 128.278 31.0981C127.236 30.7024 126.76 30.4335 125.901 29.668L127.656 27.1064C128.1 27.4987 128.695 27.8814 129.419 28.2182C130.194 28.5793 131.187 28.7018 132.046 28.7018C132.332 28.7018 132.625 28.6694 132.923 28.6033C133.22 28.5372 133.494 28.4328 133.748 28.2891C134.001 28.1465 134.205 27.9529 134.36 27.7106C134.514 27.4683 134.592 27.1715 134.592 26.8191C134.592 26.1571 134.289 25.6841 133.682 25.3977C133.076 25.1114 132.167 24.8251 130.956 24.5387C130.361 24.4065 129.782 24.2361 129.22 24.0263C128.659 23.8176 128.156 23.5417 127.716 23.1997C127.275 22.8589 126.923 22.4345 126.658 21.9279C126.394 21.4213 126.262 20.7941 126.262 20.044C126.262 19.1641 126.444 18.4036 126.807 17.7648C127.171 17.1261 127.65 16.6032 128.245 16.1951C128.84 15.787 129.512 15.4845 130.261 15.2862C131.01 15.088 131.782 14.9883 132.575 14.9883C133.721 14.9883 134.836 15.196 135.93 15.583C136.75 15.8732 137.431 16.3381 138.138 17.047L136.204 19.283Z" fill="#141433"/>
<path fill-rule="evenodd" clip-rule="evenodd" d="M139.69 18.7829V15.7627H142.505V11.3906H146.46V15.7627H150.482V18.7829H146.46V25.7967C146.46 26.4677 146.588 27.0238 146.845 27.4641C147.102 27.9044 147.678 28.124 148.571 28.124C148.839 28.124 149.13 28.0986 149.443 28.0456C149.755 27.9938 150.034 27.9143 150.281 27.8095L150.415 30.7657C150.056 30.8926 149.632 30.9909 149.14 31.0648C148.649 31.1387 148.18 31.1751 147.733 31.1751C146.661 31.1751 145.789 31.0339 145.119 30.7503C144.449 30.4678 143.917 30.0794 143.527 29.5872C143.136 29.094 142.867 28.5279 142.723 27.8878C142.577 27.2489 142.505 26.5626 142.505 25.8276V18.7829H139.69Z" fill="#141433"/>
<path fill-rule="evenodd" clip-rule="evenodd" d="M155.733 23.3049C155.733 23.9074 155.824 24.511 156.007 25.1124C156.19 25.716 156.464 26.254 156.831 26.7274C157.196 27.2008 157.659 27.5881 158.218 27.8894C158.777 28.1905 159.444 28.3412 160.22 28.3412C160.995 28.3412 161.661 28.1905 162.221 27.8894C162.781 27.5881 163.243 27.2008 163.609 26.7274C163.975 26.254 164.25 25.716 164.432 25.1124C164.614 24.511 164.706 23.9074 164.706 23.3049C164.706 22.7024 164.614 22.1055 164.432 21.5132C164.25 20.922 163.975 20.3898 163.609 19.9153C163.243 19.4429 162.781 19.0602 162.221 18.7691C161.661 18.4792 160.995 18.3342 160.22 18.3342C159.444 18.3342 158.777 18.4792 158.218 18.7691C157.659 19.0602 157.196 19.4429 156.831 19.9153C156.464 20.3898 156.19 20.922 156.007 21.5132C155.824 22.1055 155.733 22.7024 155.733 23.3049ZM151.794 23.3048C151.794 22.0783 152.015 20.965 152.455 19.9639C152.897 18.9639 153.494 18.1077 154.247 17.3976C155 16.6875 155.894 16.1383 156.927 15.7509C157.959 15.3636 159.057 15.1699 160.22 15.1699C161.382 15.1699 162.479 15.3636 163.512 15.7509C164.545 16.1383 165.437 16.6875 166.192 17.3976C166.945 18.1077 167.542 18.9639 167.983 19.9639C168.424 20.965 168.645 22.0783 168.645 23.3048C168.645 24.5314 168.424 25.6514 167.983 26.6628C167.542 27.6741 166.945 28.5405 166.192 29.2608C165.437 29.9822 164.545 30.5473 163.512 30.955C162.479 31.3639 161.382 31.5688 160.22 31.5688C159.057 31.5688 157.959 31.3639 156.927 30.955C155.894 30.5473 155 29.9822 154.247 29.2608C153.494 28.5405 152.897 27.6741 152.455 26.6628C152.015 25.6514 151.794 24.5314 151.794 23.3048Z" fill="#141433"/>
<path fill-rule="evenodd" clip-rule="evenodd" d="M170.866 15.447H174.482V18.0692H174.545C174.964 17.1518 175.551 16.4092 176.306 15.8401C177.06 15.2734 177.941 14.9883 178.948 14.9883C179.094 14.9883 179.251 14.9941 179.419 15.0056C179.587 15.0159 179.733 15.0435 179.859 15.0872V18.6911C179.608 18.6256 179.393 18.5819 179.215 18.56C179.036 18.5394 178.863 18.5279 178.696 18.5279C177.836 18.5279 177.144 18.6911 176.62 19.0187C176.096 19.3464 175.688 19.7395 175.395 20.1982C175.1 20.6569 174.902 21.1271 174.797 21.6076C174.692 22.0882 174.64 22.4709 174.64 22.7549V31.1756H170.866V15.447Z" fill="#141433"/>
<path fill-rule="evenodd" clip-rule="evenodd" d="M193.124 21.2441C193.124 20.7491 193.054 20.2757 192.915 19.8239C192.774 19.372 192.555 18.9733 192.254 18.629C191.951 18.2859 191.569 18.0107 191.107 17.8057C190.644 17.6018 190.101 17.4999 189.477 17.4999C188.315 17.4999 187.33 17.8498 186.523 18.5486C185.717 19.2485 185.269 20.1466 185.184 21.2441H193.124ZM197 22.9869V23.5033C197 23.6766 196.989 23.8476 196.967 24.0197H185.186C185.228 24.5803 185.374 25.0911 185.621 25.5532C185.869 26.0164 186.196 26.4139 186.606 26.748C187.014 27.0821 187.477 27.3448 187.993 27.5385C188.51 27.7321 189.048 27.8295 189.607 27.8295C190.577 27.8295 191.394 27.6518 192.061 27.2961C192.728 26.9416 193.277 26.4524 193.707 25.8284L196.29 27.8941C194.761 29.9598 192.545 30.9927 189.64 30.9927C188.435 30.9927 187.326 30.8036 186.315 30.4275C185.304 30.0515 184.427 29.5193 183.684 28.8295C182.942 28.141 182.361 27.2961 181.941 26.2961C181.521 25.295 181.312 24.1602 181.312 22.8906C181.312 21.6426 181.521 20.5066 181.941 19.4851C182.361 18.4624 182.937 17.5915 183.668 16.8701C184.4 16.1487 185.266 15.5904 186.266 15.1917C187.267 14.7931 188.349 14.5938 189.511 14.5938C190.587 14.5938 191.582 14.7716 192.497 15.1272C193.411 15.4817 194.202 16.0094 194.87 16.7082C195.536 17.408 196.058 18.2801 196.435 19.3232C196.811 20.3674 197 21.5882 197 22.9869Z" fill="#141433"/>
<path fill-rule="evenodd" clip-rule="evenodd" d="M124.104 28.777C124.104 30.1015 123.03 31.1752 121.706 31.1752C120.381 31.1752 119.308 30.1015 119.308 28.777C119.308 27.4526 120.381 26.3789 121.706 26.3789C123.03 26.3789 124.104 27.4526 124.104 28.777Z" fill="#141433"/>
<path fill-rule="evenodd" clip-rule="evenodd" d="M8.73596 0L16.8691 14.0874C17.0028 14.3191 17.1967 14.5125 17.428 14.6462L24.2516 18.5858C24.4835 18.7195 24.7473 18.7901 25.0148 18.7901H41.2877C40.6315 17.8304 39.7496 16.9854 38.6342 16.3416L37.5939 15.741H26.6488C25.8472 15.741 25.0561 15.5294 24.3616 15.1281L20.3666 12.8221C19.6731 12.4213 19.094 11.8422 18.6932 11.1487L13.2202 1.66883L12.1948 1.07673C11.0762 0.430847 9.89885 0.0870579 8.73596 0ZM2.81757 1.97141L11.583 17.1542C11.9843 17.8491 12.1964 18.6403 12.1964 19.4419V27.321C12.1964 28.1236 11.9843 28.9147 11.5826 29.6097L2.81757 44.7918C3.59812 45.462 4.49828 45.981 5.4694 46.3211L14.228 31.1506C14.6293 30.4562 15.2083 29.8772 15.9028 29.4759L22.7265 25.5364C23.42 25.1355 24.2111 24.9234 25.0142 24.9234H42.5532C42.6496 24.4147 42.6982 23.8982 42.6982 23.3817C42.6982 22.8647 42.6494 22.348 42.5529 21.8391H25.0142C24.2125 21.8391 23.4214 21.627 22.7269 21.2262L15.9028 17.2867C15.2088 16.8858 14.6298 16.3072 14.2285 15.6128L5.46967 0.441895C4.49848 0.782176 3.59812 1.30121 2.81757 1.97141ZM0 8.11677V9.28831L5.48468 18.7881C5.88595 19.4831 6.09806 20.2742 6.09806 21.0758V25.6869C6.09806 26.4896 5.88595 27.2806 5.48422 27.9755L0 37.4751V38.6462C0 39.9399 0.297298 41.1282 0.804408 42.1797L8.94229 28.0841C9.07658 27.8519 9.14708 27.5885 9.14708 27.3209V19.4418C9.14708 19.1748 9.07607 18.9109 8.94229 18.6787L0.804408 4.58313C0.297298 5.63488 0 6.82314 0 8.11677ZM21.3326 9.62333C21.4664 9.85469 21.6597 10.048 21.8915 10.1822L25.8851 12.4877C26.1169 12.6215 26.3807 12.6921 26.6483 12.6921H32.3123L18.5005 4.71765L21.3326 9.62333ZM0 31.3768L2.84423 26.4501C2.97852 26.2179 3.04901 25.9545 3.04901 25.6869V21.0758C3.04901 20.8088 2.97801 20.5449 2.84423 20.3127L0 15.3862V31.3768ZM25.014 27.9723C24.746 27.9723 24.4821 28.0429 24.2517 28.1761L17.4271 32.1161C17.1953 32.2499 17.002 32.4432 16.8683 32.675L8.73447 46.7633C9.89778 46.6762 11.0746 46.3326 12.1939 45.6863L13.2187 45.0947L18.6919 35.6146C19.0928 34.9206 19.6713 34.3415 20.3658 33.9402L20.3667 33.9398L24.3603 31.6342C25.0538 31.2334 25.8449 31.0213 26.648 31.0213H37.5947L38.6334 30.4217C39.749 29.7774 40.6313 28.9324 41.2876 27.9723H25.014ZM26.6474 34.0705C26.3795 34.0705 26.1156 34.141 25.8852 34.2743L21.8907 36.5804C21.6589 36.7146 21.4655 36.9079 21.3318 37.1392L18.499 42.046L32.3131 34.0705H26.6474Z" fill="url(#paint0_linear)"/>
<defs>
<linearGradient id="paint0_linear" x1="20.9487" y1="57.3679" x2="45.1709" y2="22.3912" gradientUnits="userSpaceOnUse">
<stop stop-color="#6633CC"/>
<stop offset="1" stop-color="#FF287E"/>
</linearGradient>
</defs>
</svg>
