<?xml version="1.0" encoding="UTF-8" standalone="no"?>
<svg
   xmlns:dc="http://purl.org/dc/elements/1.1/"
   xmlns:cc="http://creativecommons.org/ns#"
   xmlns:rdf="http://www.w3.org/1999/02/22-rdf-syntax-ns#"
   xmlns:svg="http://www.w3.org/2000/svg"
   xmlns="http://www.w3.org/2000/svg"
   xmlns:sodipodi="http://sodipodi.sourceforge.net/DTD/sodipodi-0.dtd"
   xmlns:inkscape="http://www.inkscape.org/namespaces/inkscape"
   width="132"
   height="132"
   viewBox="0 0 132 132"
   fill="none"
   version="1.1"
   id="svg14"
   sodipodi:docname="Group 210.svg"
   inkscape:version="1.0.2-2 (e86c870879, 2021-01-15)">
  <metadata
     id="metadata20">
    <rdf:RDF>
      <cc:Work
         rdf:about="">
        <dc:format>image/svg+xml</dc:format>
        <dc:type
           rdf:resource="http://purl.org/dc/dcmitype/StillImage" />
        <dc:title></dc:title>
      </cc:Work>
    </rdf:RDF>
  </metadata>
  <defs
     id="defs18" />
  <sodipodi:namedview
     pagecolor="#ffffff"
     bordercolor="#666666"
     borderopacity="1"
     objecttolerance="10"
     gridtolerance="10"
     guidetolerance="10"
     inkscape:pageopacity="0"
     inkscape:pageshadow="2"
     inkscape:window-width="3440"
     inkscape:window-height="1377"
     id="namedview16"
     showgrid="false"
     fit-margin-top="0"
     fit-margin-left="0"
     fit-margin-right="0"
     fit-margin-bottom="0"
     inkscape:zoom="10.391753"
     inkscape:cx="97.697609"
     inkscape:cy="83.155258"
     inkscape:window-x="1912"
     inkscape:window-y="-8"
     inkscape:window-maximized="1"
     inkscape:current-layer="svg14" />
  <g
     id="g860"
     transform="translate(12.91983,35.9648)">
    <path
       d="M 95.2636,76.9888 H 10.8776 C 5.24217,76.9888 1,72.4092 1,67.1457 V 10.8431 C 1,5.22736 5.59569,1 10.8776,1 h 84.386 c 5.6564,0 9.8774,4.57964 9.8774,9.8431 V 67.125 c 0.354,5.2842 -4.221,9.8638 -9.8774,9.8638 z"
       stroke="#000000"
       stroke-width="1.5"
       stroke-miterlimit="10"
       stroke-linecap="round"
       stroke-linejoin="round"
       id="path2" />
    <path
       d="M 30.3008,95.2852 H 76.1953"
       stroke="#000000"
       stroke-width="1.5"
       stroke-miterlimit="10"
       stroke-linecap="round"
       stroke-linejoin="round"
       id="path4" />
    <path
       d="M 62.0752,78.3984 V 93.877"
       stroke="#000000"
       stroke-width="1.5"
       stroke-miterlimit="10"
       stroke-linecap="round"
       stroke-linejoin="round"
       id="path6" />
    <path
       d="M 44.4199,78.3984 V 93.877"
       stroke="#000000"
       stroke-width="1.5"
       stroke-miterlimit="10"
       stroke-linecap="round"
       stroke-linejoin="round"
       id="path8" />
    <path
       d="m 52.4684,65.2383 c 1.1944,0 2.1627,-0.9645 2.1627,-2.1543 0,-1.1898 -0.9683,-2.1543 -2.1627,-2.1543 -1.1945,0 -2.1627,0.9645 -2.1627,2.1543 0,1.1898 0.9682,2.1543 2.1627,2.1543 z"
       stroke="#6633cc"
       stroke-width="1.5"
       stroke-miterlimit="10"
       id="path10" />
    <path
       d="m 54.4843,56.4731 7.715,-39.7247 c 0.2495,-1.2848 -0.7487,-2.4867 -2.0587,-2.4867 H 44.6899 c -1.3101,0 -2.3082,1.2019 -2.0587,2.4867 l 7.7149,39.7247 c 0.4575,2.2588 3.7015,2.2588 4.1382,0 z"
       stroke="#6633cc"
       stroke-width="1.5"
       stroke-miterlimit="10"
       id="path12" />
  </g>
</svg>
