<?xml version="1.0" encoding="UTF-8" standalone="no"?>
<svg
   xmlns:dc="http://purl.org/dc/elements/1.1/"
   xmlns:cc="http://creativecommons.org/ns#"
   xmlns:rdf="http://www.w3.org/1999/02/22-rdf-syntax-ns#"
   xmlns:svg="http://www.w3.org/2000/svg"
   xmlns="http://www.w3.org/2000/svg"
   xmlns:sodipodi="http://sodipodi.sourceforge.net/DTD/sodipodi-0.dtd"
   xmlns:inkscape="http://www.inkscape.org/namespaces/inkscape"
   width="28.079983"
   height="28.08"
   viewBox="0 0 28.079983 28.08"
   fill="none"
   version="1.1"
   id="svg4"
   sodipodi:docname="ni-circle.svg"
   inkscape:version="1.0.2-2 (e86c870879, 2021-01-15)">
  <metadata
     id="metadata10">
    <rdf:RDF>
      <cc:Work
         rdf:about="">
        <dc:format>image/svg+xml</dc:format>
        <dc:type
           rdf:resource="http://purl.org/dc/dcmitype/StillImage" />
        <dc:title></dc:title>
      </cc:Work>
    </rdf:RDF>
  </metadata>
  <defs
     id="defs8" />
  <sodipodi:namedview
     pagecolor="#ffffff"
     bordercolor="#666666"
     borderopacity="1"
     objecttolerance="10"
     gridtolerance="10"
     guidetolerance="10"
     inkscape:pageopacity="0"
     inkscape:pageshadow="2"
     inkscape:window-width="3440"
     inkscape:window-height="1377"
     id="namedview6"
     showgrid="false"
     fit-margin-top="0"
     fit-margin-left="0"
     fit-margin-right="0"
     fit-margin-bottom="0"
     inkscape:zoom="34.758621"
     inkscape:cx="14.379883"
     inkscape:cy="14.5"
     inkscape:window-x="1912"
     inkscape:window-y="-8"
     inkscape:window-maximized="1"
     inkscape:current-layer="svg4" />
  <path
     fill-rule="evenodd"
     clip-rule="evenodd"
     d="M 14.039983,0 C 6.285823,0 0,6.28582 0,14.04 c 0,7.7542 6.285823,14.04 14.039983,14.04 7.7542,0 14.04,-6.2858 14.04,-14.04 0,-7.75418 -6.2858,-14.04 -14.04,-14.04 z m -7.29963,11.6289 h 3.18123 v 9.5601 h -3.18123 z m 3.39123,-2.95791 c -0.0204,-0.93776 -0.69085,-1.65146 -1.77954,-1.65146 -1.0881,0 -1.80004,0.7137 -1.80004,1.65146 0,0.91786 0.6903,1.65201 1.75851,1.65201 h 0.02047 c 1.10975,0 1.8006,-0.73415 1.8006,-1.65201 z m 7.6015,2.73331 c 2.0943,0 3.6633,1.3666 3.6633,4.3033 v 5.4814 h -3.1818 v -5.1146 c 0,-1.2847 -0.4604,-2.1616 -1.6117,-2.1616 -0.8792,0 -1.4028,0.5908 -1.6327,1.1618 -0.0843,0.2047 -0.1053,0.4896 -0.1053,0.7751 v 5.3393 h -3.1818 c 0,0 0.0421,-8.6627 0,-9.5601 h 3.1824 v 1.3543 c 0.4217,-0.6511 1.1782,-1.5789 2.8676,-1.5789 z"
     fill="#6633cc"
     id="path2"
     style="fill:#000000;fill-opacity:1" />
</svg>
