<svg width="257" height="42" viewBox="0 0 257 42" fill="none" xmlns="http://www.w3.org/2000/svg">
<path d="M206.016 14.0291V15.9684H206.103C206.278 15.6989 206.502 15.4223 206.782 15.1423C207.062 14.8622 207.405 14.6102 207.811 14.3897C208.218 14.1691 208.676 13.9836 209.187 13.8401C209.698 13.6966 210.272 13.623 210.909 13.623C211.893 13.623 212.803 13.8121 213.633 14.1866C214.462 14.5647 215.177 15.0793 215.775 15.7374C216.374 16.3955 216.836 17.1656 217.165 18.0547C217.494 18.9438 217.658 19.8995 217.658 20.9216C217.658 21.9438 217.501 22.9064 217.179 23.8026C216.86 24.7022 216.405 25.4828 215.817 26.1479C215.229 26.813 214.515 27.3451 213.675 27.7407C212.835 28.1362 211.883 28.3358 210.822 28.3358C209.838 28.3358 208.935 28.1327 208.113 27.7267C207.29 27.3206 206.66 26.771 206.215 26.0744H206.156V34.8817H202.68V14.0291H206.016ZM214.126 20.9216C214.126 20.3826 214.042 19.847 213.881 19.3149C213.717 18.7828 213.472 18.3068 213.143 17.8797C212.814 17.4561 212.401 17.1131 211.897 16.8505C211.396 16.588 210.804 16.4585 210.129 16.4585C209.492 16.4585 208.921 16.595 208.421 16.8645C207.916 17.1341 207.489 17.4841 207.132 17.9077C206.775 18.3313 206.506 18.8143 206.32 19.3569C206.138 19.8995 206.044 20.4386 206.044 20.9777C206.044 21.5202 206.135 22.0558 206.32 22.5844C206.502 23.1165 206.775 23.5925 207.132 24.0196C207.489 24.4432 207.92 24.7862 208.421 25.0488C208.921 25.3113 209.492 25.4408 210.129 25.4408C210.804 25.4408 211.393 25.3043 211.897 25.0348C212.397 24.7652 212.814 24.4152 213.143 23.9916C213.472 23.568 213.717 23.085 213.881 22.5424C214.042 22.0033 214.126 21.4642 214.126 20.9216Z" fill="white"/>
<path d="M148.222 13.959H152.024L155.706 24.191H155.766L159.48 13.959H163.166L157.593 27.9611H153.879L148.222 13.959Z" fill="white"/>
<path d="M147.536 21.1738C147.536 21.3278 147.536 21.4818 147.536 21.6393C147.536 21.7933 147.525 21.9474 147.508 22.1049H136.922C136.961 22.609 137.09 23.0675 137.314 23.4841C137.535 23.9007 137.832 24.2577 138.2 24.5588C138.568 24.8598 138.984 25.0943 139.446 25.2694C139.912 25.4444 140.395 25.5319 140.895 25.5319C141.767 25.5319 142.499 25.3709 143.101 25.0523C143.699 24.7338 144.193 24.2927 144.581 23.7326L146.902 25.5879C145.53 27.4432 143.538 28.3708 140.927 28.3708C139.845 28.3708 138.848 28.2028 137.941 27.8633C137.031 27.5237 136.243 27.0476 135.578 26.428C134.91 25.8085 134.388 25.0488 134.013 24.1527C133.635 23.2531 133.446 22.2344 133.446 21.0932C133.446 19.9731 133.635 18.9509 134.013 18.0338C134.391 17.1166 134.906 16.3325 135.564 15.6849C136.222 15.0373 136.999 14.5333 137.899 14.1762C138.799 13.8192 139.768 13.6406 140.815 13.6406C141.781 13.6406 142.677 13.8016 143.496 14.1202C144.319 14.4387 145.03 14.9148 145.628 15.5414C146.227 16.1715 146.696 16.9521 147.035 17.8903C147.368 18.8214 147.536 19.9171 147.536 21.1738ZM144.056 19.609C144.056 19.1645 143.993 18.7374 143.867 18.3313C143.741 17.9253 143.542 17.5682 143.272 17.2567C143.003 16.9486 142.66 16.7001 142.243 16.5181C141.827 16.336 141.34 16.2415 140.78 16.2415C139.737 16.2415 138.851 16.5566 138.126 17.1832C137.402 17.8133 136.999 18.6184 136.922 19.6055H144.056V19.609Z" fill="white"/>
<path d="M131.486 27.9605H128.178V25.8707H128.118C127.635 26.6828 126.963 27.3024 126.102 27.726C125.241 28.1495 124.317 28.3631 123.333 28.3631C122.269 28.3631 121.317 28.1635 120.477 27.768C119.637 27.3724 118.919 26.8403 118.331 26.1717C117.739 25.5031 117.288 24.7225 116.969 23.8229C116.651 22.9232 116.49 21.9606 116.49 20.9384C116.49 19.9128 116.654 18.9571 116.983 18.068C117.312 17.1789 117.774 16.4053 118.377 15.7472C118.975 15.0891 119.693 14.571 120.522 14.1964C121.352 13.8184 122.262 13.6293 123.249 13.6293C123.886 13.6293 124.457 13.7029 124.961 13.8464C125.465 13.9899 125.903 14.1719 126.281 14.382C126.659 14.5955 126.981 14.8265 127.254 15.0786C127.523 15.3306 127.747 15.5721 127.922 15.8032H128.01V6.0332H131.49V27.9605H131.486ZM120.029 20.9419C120.029 21.4845 120.109 22.0236 120.274 22.5662C120.438 23.1088 120.683 23.5918 121.012 24.0154C121.341 24.4425 121.758 24.789 122.259 25.0586C122.763 25.3281 123.351 25.4646 124.026 25.4646C124.663 25.4646 125.234 25.3351 125.738 25.0726C126.242 24.81 126.669 24.467 127.03 24.0434C127.387 23.6198 127.656 23.1403 127.842 22.6082C128.024 22.0761 128.118 21.5405 128.118 20.998C128.118 20.4554 128.027 19.9163 127.842 19.3737C127.656 18.8311 127.387 18.3481 127.03 17.9245C126.673 17.5009 126.242 17.1509 125.738 16.8813C125.234 16.6118 124.663 16.4753 124.026 16.4753C123.351 16.4753 122.759 16.6048 122.259 16.8673C121.755 17.1299 121.341 17.4729 121.012 17.8965C120.683 18.3235 120.438 18.7996 120.274 19.3317C120.109 19.8638 120.029 20.3994 120.029 20.9419Z" fill="white"/>
<path d="M177.928 21.1515C177.928 21.3055 177.928 21.4595 177.928 21.6135C177.928 21.7676 177.917 21.9216 177.9 22.0756H167.325C167.363 22.5797 167.493 23.0382 167.717 23.4513C167.937 23.8679 168.231 24.2249 168.599 24.5225C168.966 24.8235 169.379 25.058 169.845 25.2331C170.307 25.4081 170.79 25.4921 171.294 25.4921C172.162 25.4921 172.897 25.3346 173.496 25.0125C174.095 24.694 174.588 24.2564 174.973 23.6928L177.291 25.5481C175.918 27.4034 173.93 28.3275 171.322 28.3275C170.241 28.3275 169.246 28.1595 168.34 27.82C167.433 27.4839 166.645 27.0043 165.98 26.3847C165.315 25.7652 164.794 25.009 164.416 24.1094C164.038 23.2098 163.852 22.1946 163.852 21.0534C163.852 19.9333 164.041 18.9146 164.416 17.9975C164.794 17.0803 165.308 16.2997 165.966 15.6521C166.621 15.0045 167.402 14.504 168.298 14.1469C169.194 13.7899 170.167 13.6113 171.21 13.6113C172.176 13.6113 173.069 13.7724 173.888 14.0909C174.707 14.4094 175.418 14.882 176.016 15.5086C176.615 16.1352 177.084 16.9193 177.42 17.854C177.756 18.8026 177.928 19.8983 177.928 21.1515ZM174.452 19.5902C174.452 19.1457 174.389 18.7221 174.263 18.316C174.137 17.91 173.937 17.5529 173.668 17.2449C173.398 16.9368 173.055 16.6883 172.638 16.5063C172.222 16.3242 171.735 16.2297 171.175 16.2297C170.132 16.2297 169.25 16.5448 168.525 17.1714C167.801 17.798 167.402 18.6066 167.325 19.5902H174.452Z" fill="white"/>
<path d="M179.979 6.0332H183.455V27.9325H179.979V6.0332Z" fill="white"/>
<path d="M185.51 20.9216C185.51 19.8225 185.709 18.8213 186.105 17.9252C186.5 17.0256 187.036 16.2589 187.712 15.6218C188.387 14.9848 189.189 14.4912 190.116 14.1446C191.044 13.7981 192.028 13.623 193.071 13.623C194.114 13.623 195.098 13.7981 196.025 14.1446C196.953 14.4912 197.755 14.9848 198.43 15.6218C199.106 16.2589 199.641 17.0256 200.037 17.9252C200.433 18.8213 200.632 19.8225 200.632 20.9216C200.632 22.0208 200.433 23.0255 200.037 23.9356C199.641 24.8422 199.106 25.6193 198.43 26.2669C197.755 26.9145 196.953 27.4221 196.025 27.7862C195.098 28.1537 194.114 28.3358 193.071 28.3358C192.028 28.3358 191.044 28.1537 190.116 27.7862C189.189 27.4186 188.387 26.911 187.712 26.2669C187.036 25.6193 186.5 24.8422 186.105 23.9356C185.709 23.029 185.51 22.0243 185.51 20.9216ZM189.045 20.9216C189.045 21.4642 189.126 22.0033 189.29 22.5424C189.455 23.085 189.7 23.5645 190.029 23.9916C190.358 24.4152 190.771 24.7652 191.275 25.0348C191.776 25.3043 192.374 25.4408 193.071 25.4408C193.767 25.4408 194.363 25.3043 194.867 25.0348C195.367 24.7652 195.784 24.4152 196.113 23.9916C196.442 23.568 196.687 23.085 196.851 22.5424C197.016 22.0033 197.096 21.4607 197.096 20.9216C197.096 20.3826 197.012 19.847 196.851 19.3149C196.687 18.7828 196.442 18.3068 196.113 17.8797C195.784 17.4561 195.371 17.1131 194.867 16.8505C194.363 16.588 193.767 16.4585 193.071 16.4585C192.374 16.4585 191.776 16.588 191.275 16.8505C190.771 17.1096 190.358 17.4561 190.029 17.8797C189.7 18.3033 189.455 18.7828 189.29 19.3149C189.126 19.847 189.045 20.3826 189.045 20.9216Z" fill="white"/>
<path d="M233.792 21.1515C233.792 21.3055 233.792 21.4595 233.792 21.6135C233.792 21.7676 233.782 21.9216 233.764 22.0756H223.193C223.231 22.5797 223.361 23.0382 223.585 23.4513C223.805 23.8679 224.099 24.2249 224.467 24.5225C224.834 24.8235 225.248 25.058 225.713 25.2331C226.175 25.4081 226.658 25.4921 227.162 25.4921C228.03 25.4921 228.766 25.3346 229.364 25.0125C229.963 24.694 230.456 24.2564 230.841 23.6928L233.159 25.5481C231.787 27.4034 229.798 28.3275 227.19 28.3275C226.109 28.3275 225.115 28.1595 224.208 27.82C223.301 27.4839 222.514 27.0043 221.849 26.3847C221.183 25.7652 220.662 25.009 220.284 24.1094C219.906 23.2098 219.72 22.1946 219.72 21.0534C219.72 19.9333 219.909 18.9146 220.284 17.9975C220.662 17.0803 221.176 16.2997 221.835 15.6521C222.493 15.0045 223.27 14.504 224.166 14.1469C225.062 13.7899 226.035 13.6113 227.078 13.6113C228.044 13.6113 228.937 13.7724 229.756 14.0909C230.575 14.4094 231.286 14.882 231.885 15.5086C232.483 16.1352 232.952 16.9193 233.288 17.854C233.621 18.8026 233.792 19.8983 233.792 21.1515ZM230.316 19.5902C230.316 19.1457 230.253 18.7221 230.127 18.316C230.001 17.91 229.805 17.5529 229.532 17.2449C229.263 16.9368 228.92 16.6883 228.503 16.5063C228.086 16.3242 227.6 16.2297 227.04 16.2297C225.997 16.2297 225.115 16.5448 224.39 17.1714C223.665 17.798 223.266 18.6066 223.189 19.5902H230.316Z" fill="white"/>
<path d="M235.844 14.0291H239.176V16.3465H239.232C239.617 15.5343 240.16 14.8797 240.853 14.3757C241.55 13.8751 242.358 13.623 243.286 13.623C243.422 13.623 243.566 13.6265 243.72 13.637C243.874 13.6476 244.011 13.6721 244.126 13.7106V16.896C243.895 16.84 243.696 16.798 243.531 16.7805C243.366 16.763 243.209 16.7525 243.051 16.7525C242.26 16.7525 241.623 16.896 241.14 17.1866C240.657 17.4771 240.279 17.8237 240.009 18.2297C239.74 18.6358 239.554 19.0524 239.46 19.4759C239.362 19.8995 239.316 20.239 239.316 20.4911V27.9332H235.84V14.0291H235.844Z" fill="white"/>
<path d="M254.082 17.7349C253.774 17.3289 253.346 16.9788 252.807 16.6778C252.265 16.3802 251.677 16.2297 251.04 16.2297C250.48 16.2297 249.968 16.3452 249.503 16.5763C249.041 16.8073 248.806 17.1959 248.806 17.7349C248.806 18.2775 249.062 18.6591 249.573 18.8796C250.084 19.1002 250.833 19.3277 251.817 19.5587C252.338 19.6742 252.863 19.8283 253.395 20.0208C253.928 20.2133 254.411 20.4689 254.845 20.7874C255.279 21.106 255.632 21.5015 255.902 21.9741C256.171 22.4467 256.308 23.0207 256.308 23.6963C256.308 24.547 256.147 25.2646 255.828 25.8527C255.51 26.4408 255.086 26.9203 254.554 27.2879C254.022 27.6554 253.406 27.9215 252.699 28.086C251.995 28.2505 251.264 28.331 250.511 28.331C249.429 28.331 248.376 28.1315 247.354 27.7359C246.331 27.3404 245.481 26.7768 244.805 26.0417L247.095 23.8994C247.48 24.4034 247.984 24.8165 248.6 25.1456C249.216 25.4746 249.902 25.6391 250.655 25.6391C250.907 25.6391 251.162 25.6111 251.421 25.5516C251.68 25.4921 251.922 25.4011 252.146 25.2751C252.366 25.1491 252.545 24.981 252.681 24.7675C252.818 24.554 252.884 24.2949 252.884 23.9869C252.884 23.4093 252.618 22.9927 252.086 22.7407C251.554 22.4887 250.76 22.2401 249.695 21.9881C249.174 21.8726 248.666 21.722 248.176 21.54C247.683 21.358 247.245 21.1165 246.856 20.8154C246.471 20.5179 246.16 20.1433 245.929 19.6987C245.698 19.2542 245.582 18.7046 245.582 18.0465C245.582 17.2729 245.743 16.6078 246.062 16.0477C246.38 15.4876 246.8 15.029 247.322 14.672C247.844 14.3149 248.432 14.0489 249.09 13.8739C249.748 13.6988 250.424 13.6113 251.117 13.6113C252.121 13.6113 253.101 13.7864 254.057 14.1329C255.013 14.4795 255.772 15.0115 256.332 15.7256L254.082 17.7349Z" fill="white"/>
<path d="M47.4839 20.9419C47.4839 19.8392 47.6834 18.8381 48.079 17.9385C48.4745 17.0423 49.0101 16.2722 49.6892 15.6351C50.3648 14.9945 51.1664 14.5009 52.0941 14.1544C53.0252 13.8043 54.0089 13.6328 55.052 13.6328C56.0952 13.6328 57.0823 13.8043 58.01 14.1544C58.9376 14.5009 59.7392 14.9945 60.4183 15.6351C61.0939 16.2722 61.633 17.0423 62.0286 17.9385C62.4241 18.8381 62.6237 19.8392 62.6237 20.9419C62.6237 22.0446 62.4241 23.0492 62.0286 23.9594C61.633 24.8695 61.0974 25.6466 60.4183 26.2942C59.7427 26.9418 58.9376 27.4494 58.01 27.8204C57.0823 28.1845 56.0952 28.37 55.052 28.37C54.0054 28.37 53.0217 28.1845 52.0941 27.8204C51.1664 27.4529 50.3648 26.9453 49.6892 26.2942C49.0136 25.6466 48.4745 24.8695 48.079 23.9594C47.6799 23.0492 47.4839 22.0446 47.4839 20.9419ZM51.0194 20.9419C51.0194 21.4845 51.1034 22.0236 51.2645 22.5662C51.429 23.1087 51.674 23.5918 52.0066 24.0189C52.3356 24.4424 52.7487 24.7925 53.2528 25.062C53.7568 25.3351 54.3554 25.4681 55.052 25.4681C55.7486 25.4681 56.3472 25.3351 56.8513 25.062C57.3554 24.7925 57.7684 24.4424 58.0975 24.0189C58.4265 23.5953 58.6716 23.1087 58.8361 22.5662C59.0006 22.0271 59.0846 21.4845 59.0846 20.9419C59.0846 20.4028 59.0006 19.8672 58.8361 19.3317C58.6716 18.7996 58.4265 18.32 58.0975 17.8965C57.7684 17.4729 57.3554 17.1263 56.8513 16.8673C56.3472 16.6048 55.7486 16.4752 55.052 16.4752C54.3554 16.4752 53.7568 16.6048 53.2528 16.8673C52.7487 17.1263 52.3356 17.4729 52.0066 17.8965C51.6775 18.32 51.4325 18.7996 51.2645 19.3317C51.1034 19.8672 51.0194 20.4028 51.0194 20.9419Z" fill="white"/>
<path d="M93.635 21.1764C93.635 21.3305 93.635 21.4845 93.635 21.6385C93.635 21.7925 93.6245 21.9466 93.6035 22.1041H83.0179C83.0564 22.6082 83.1895 23.0632 83.41 23.4833C83.6305 23.8999 83.9281 24.2534 84.2956 24.5545C84.6597 24.8555 85.0797 25.09 85.5418 25.2651C86.0074 25.4401 86.4905 25.5276 86.9945 25.5276C87.8627 25.5276 88.5978 25.3666 89.1999 25.048C89.7985 24.7295 90.2885 24.2919 90.6771 23.7283L92.9979 25.5836C91.6257 27.4424 89.6339 28.3665 87.026 28.3665C85.9444 28.3665 84.9467 28.195 84.0401 27.8589C83.1299 27.5229 82.3423 27.0433 81.6772 26.4237C81.0086 25.8041 80.4871 25.0445 80.109 24.1449C79.7344 23.2453 79.5454 22.2266 79.5454 21.0854C79.5454 19.9653 79.7344 18.9466 80.109 18.026C80.4871 17.1088 81.0051 16.3282 81.6632 15.6771C82.3178 15.0295 83.0984 14.5289 83.9981 14.1684C84.8977 13.8113 85.8674 13.6328 86.914 13.6328C87.8802 13.6328 88.7728 13.7903 89.5954 14.1089C90.418 14.4309 91.1287 14.9035 91.7272 15.5336C92.3258 16.1602 92.7949 16.9443 93.1344 17.8825C93.4635 18.8206 93.635 19.9198 93.635 21.1764ZM90.1555 19.6082C90.1555 19.1636 90.0925 18.7366 89.9665 18.3305C89.8405 17.9245 89.6444 17.5674 89.3714 17.2594C89.0983 16.9513 88.7588 16.7028 88.3422 16.5172C87.9257 16.3352 87.4391 16.2442 86.879 16.2442C85.8324 16.2442 84.9502 16.5593 84.2256 17.1858C83.501 17.8124 83.0984 18.6211 83.0214 19.6082H90.1555Z" fill="white"/>
<path d="M99.3478 20.484L94.3315 13.959H98.5077L101.522 18.2786L104.627 13.959H108.628L103.639 20.484L109.398 27.9611H105.148L101.462 22.8048L97.748 27.9611H93.6279L99.3478 20.484Z" fill="white"/>
<path d="M71.0808 13.6367C67.5418 13.6367 64.6714 16.5072 64.6714 20.0462V27.9609H68.1509V20.0462C68.1509 18.4289 69.4601 16.9447 71.0774 16.9447C72.6946 16.9447 74.0038 18.4289 74.0038 20.0462V27.9609H77.4833V20.0462C77.4903 16.5072 74.6199 13.6367 71.0808 13.6367Z" fill="white"/>
<path d="M112.891 28.1346C114.124 28.1346 115.124 27.1347 115.124 25.9013C115.124 24.6679 114.124 23.668 112.891 23.668C111.658 23.668 110.658 24.6679 110.658 25.9013C110.658 27.1347 111.658 28.1346 112.891 28.1346Z" fill="white"/>
<path d="M11.4598 11.4624C11.6104 11.3118 11.7329 10.9128 11.7329 10.5767V5.54297L5.54395 11.7354H10.5777C10.9138 11.7354 11.3093 11.6129 11.4598 11.4624Z" fill="url(#paint0_linear)"/>
<path d="M14.2673 16.5992L16.5987 14.2678C16.8367 14.0298 17.0293 13.5607 17.0293 13.2247V0.923828C16.1751 1.34739 15.3735 1.90398 14.6629 2.61458L14.3829 2.89812V11.6739C14.3829 12.01 14.1868 12.4791 13.9488 12.7171L12.7096 13.9528C12.4716 14.1908 12.0025 14.3834 11.6665 14.3834H2.89414L2.61409 14.6634C1.90349 15.374 1.3469 16.1756 0.92334 17.0297H13.2242C13.5602 17.0332 14.0293 16.8372 14.2673 16.5992Z" fill="url(#paint1_linear)"/>
<path d="M31.4267 11.7354H36.4605L30.2681 5.54297V10.5767C30.2681 10.9128 30.3906 11.3118 30.5411 11.4624C30.6951 11.6129 31.0942 11.7354 31.4267 11.7354Z" fill="url(#paint2_linear)"/>
<path d="M25.4057 14.2678L27.7371 16.5992C27.9751 16.8372 28.4442 17.0297 28.7803 17.0297H41.0811C40.6575 16.1756 40.101 15.374 39.3903 14.6634L39.1103 14.3834H30.3345C29.9984 14.3834 29.5294 14.1873 29.2913 13.9528L28.0521 12.7171C27.8141 12.4791 27.6216 12.01 27.6216 11.6739V2.89812L27.338 2.61458C26.6274 1.90398 25.8258 1.34739 24.9717 0.923828V13.2247C24.9752 13.5607 25.1677 14.0298 25.4057 14.2678Z" fill="url(#paint3_linear)"/>
<path d="M10.5777 30.2676H5.54395L11.7364 36.46V31.4263C11.7364 31.0902 11.6139 30.6911 11.4633 30.5406C11.3093 30.3901 10.9138 30.2676 10.5777 30.2676Z" fill="url(#paint4_linear)"/>
<path d="M30.5445 30.5446C30.394 30.6951 30.2715 31.0942 30.2715 31.4302V36.464L36.4639 30.2716H31.4267C31.0941 30.2681 30.695 30.3906 30.5445 30.5446Z" fill="url(#paint5_linear)"/>
<path d="M27.7375 25.4052L25.4062 27.7366C25.1681 27.9746 24.9756 28.4437 24.9756 28.7797V41.0806C25.8297 40.657 26.6313 40.1004 27.3419 39.3898L27.6255 39.1063V30.3305C27.6255 29.9944 27.8215 29.5253 28.056 29.2873L29.2952 28.0516C29.5333 27.8136 30.0023 27.6211 30.3384 27.6211H39.1107L39.3908 27.341C40.1014 26.6304 40.6614 25.8288 41.0815 24.9747H28.7807C28.4446 24.9712 27.9755 25.1672 27.7375 25.4052Z" fill="url(#paint6_linear)"/>
<path d="M16.5987 27.7365L14.2673 25.4052C14.0293 25.1671 13.5602 24.9746 13.2242 24.9746H0.92334C1.3469 25.8287 1.90349 26.6304 2.61409 27.341L2.89414 27.621H11.6665C12.0025 27.621 12.4716 27.8135 12.7096 28.0516L13.9488 29.2873C14.1868 29.5253 14.3829 29.9944 14.3829 30.3304V39.1062L14.6629 39.3898C15.3735 40.1004 16.1751 40.657 17.0293 41.0805V28.7797C17.0293 28.4436 16.8367 27.9746 16.5987 27.7365Z" fill="url(#paint7_linear)"/>
<path d="M41.9074 19.6791H27.6848C27.3487 19.6791 26.8797 19.4831 26.6416 19.2485L23.3301 15.937C23.0921 15.699 22.77 15.2754 22.6125 14.9954C22.455 14.7153 22.3255 13.7772 22.3255 13.7772C22.3255 13.4411 22.3255 12.8916 22.3255 12.5555V0.0971396C21.4468 -0.0323799 20.5542 -0.0323799 19.6756 0.0971396V12.552C19.6756 12.8881 19.6756 13.4376 19.6756 13.7737C19.6756 13.7737 19.5461 14.7118 19.3885 14.9919C19.231 15.2719 18.909 15.6955 18.6709 15.9335L15.3594 19.245C15.1214 19.4831 14.6523 19.6756 14.3163 19.6756H0.0971396C-0.0323799 20.5542 -0.0323799 21.4433 0.0971396 22.322H14.3198C14.6558 22.322 15.1249 22.518 15.3629 22.7525L18.6744 26.064C18.9125 26.3021 19.2345 26.7256 19.392 27.0057C19.5496 27.2857 19.6791 28.2239 19.6791 28.2239C19.6791 28.5599 19.6791 29.1095 19.6791 29.4455V41.9004C20.5577 42.0299 21.4503 42.0299 22.329 41.9004V29.4525C22.329 29.1165 22.329 28.5669 22.329 28.2309C22.329 28.2309 22.4585 27.2927 22.616 27.0127C22.7735 26.7326 23.0956 26.3091 23.3336 26.071L26.6451 22.7595C26.8832 22.5215 27.3522 22.329 27.6883 22.329H41.9109C42.0369 21.4468 42.0369 20.5577 41.9074 19.6791Z" fill="url(#paint8_linear)"/>
<defs>
<linearGradient id="paint0_linear" x1="-7.59959" y1="23.4614" x2="28.7555" y2="-4.86438" gradientUnits="userSpaceOnUse">
<stop stop-color="#F10070"/>
<stop offset="1" stop-color="#FFCE00"/>
</linearGradient>
<linearGradient id="paint1_linear" x1="-6.00042" y1="25.5153" x2="30.3547" y2="-2.81047" gradientUnits="userSpaceOnUse">
<stop stop-color="#F10070"/>
<stop offset="1" stop-color="#FFCE00"/>
</linearGradient>
<linearGradient id="paint2_linear" x1="0.688268" y1="34.0987" x2="37.0434" y2="5.77291" gradientUnits="userSpaceOnUse">
<stop stop-color="#F10070"/>
<stop offset="1" stop-color="#FFCE00"/>
</linearGradient>
<linearGradient id="paint3_linear" x1="0.724308" y1="34.1466" x2="37.0794" y2="5.82082" gradientUnits="userSpaceOnUse">
<stop stop-color="#F10070"/>
<stop offset="1" stop-color="#FFCE00"/>
</linearGradient>
<linearGradient id="paint4_linear" x1="3.33557" y1="37.4967" x2="39.6907" y2="9.17093" gradientUnits="userSpaceOnUse">
<stop stop-color="#F10070"/>
<stop offset="1" stop-color="#FFCE00"/>
</linearGradient>
<linearGradient id="paint5_linear" x1="11.6234" y1="48.1345" x2="47.9785" y2="19.8087" gradientUnits="userSpaceOnUse">
<stop stop-color="#F10070"/>
<stop offset="1" stop-color="#FFCE00"/>
</linearGradient>
<linearGradient id="paint6_linear" x1="10.0246" y1="46.0815" x2="46.3798" y2="17.7557" gradientUnits="userSpaceOnUse">
<stop stop-color="#F10070"/>
<stop offset="1" stop-color="#FFCE00"/>
</linearGradient>
<linearGradient id="paint7_linear" x1="3.29953" y1="37.4501" x2="39.6547" y2="9.12437" gradientUnits="userSpaceOnUse">
<stop stop-color="#F10070"/>
<stop offset="1" stop-color="#FFCE00"/>
</linearGradient>
<linearGradient id="paint8_linear" x1="2.012" y1="35.7985" x2="38.3671" y2="7.47271" gradientUnits="userSpaceOnUse">
<stop stop-color="#F10070"/>
<stop offset="1" stop-color="#FFCE00"/>
</linearGradient>
</defs>
</svg>
