<?xml version="1.0" encoding="UTF-8" standalone="no"?>
<svg
   xmlns:dc="http://purl.org/dc/elements/1.1/"
   xmlns:cc="http://creativecommons.org/ns#"
   xmlns:rdf="http://www.w3.org/1999/02/22-rdf-syntax-ns#"
   xmlns:svg="http://www.w3.org/2000/svg"
   xmlns="http://www.w3.org/2000/svg"
   xmlns:sodipodi="http://sodipodi.sourceforge.net/DTD/sodipodi-0.dtd"
   xmlns:inkscape="http://www.inkscape.org/namespaces/inkscape"
   width="14.764541"
   height="13.999916"
   viewBox="0 0 14.764541 13.999916"
   fill="none"
   version="1.1"
   id="svg4"
   sodipodi:docname="rating__total-star025.svg"
   inkscape:version="1.0.2-2 (e86c870879, 2021-01-15)">
  <metadata
     id="metadata10">
    <rdf:RDF>
      <cc:Work
         rdf:about="">
        <dc:format>image/svg+xml</dc:format>
        <dc:type
           rdf:resource="http://purl.org/dc/dcmitype/StillImage" />
        <dc:title />
      </cc:Work>
    </rdf:RDF>
  </metadata>
  <defs
     id="defs8">
    <mask
       maskUnits="userSpaceOnUse"
       id="mask876">
      <rect
         style="fill:#ffffff;fill-opacity:1;fill-rule:evenodd;stroke:none;stroke-width:1.44468;stroke-opacity:1;paint-order:stroke fill markers"
         id="rect878"
         width="5.0744052"
         height="15.550595"
         x="0.014880657"
         y="-8.5149495e-08" />
    </mask>
  </defs>
  <sodipodi:namedview
     pagecolor="#ffffff"
     bordercolor="#666666"
     borderopacity="1"
     objecttolerance="10"
     gridtolerance="10"
     guidetolerance="10"
     inkscape:pageopacity="0"
     inkscape:pageshadow="2"
     inkscape:window-width="3440"
     inkscape:window-height="1377"
     id="namedview6"
     showgrid="false"
     fit-margin-top="0"
     fit-margin-left="0"
     fit-margin-right="0"
     fit-margin-bottom="0"
     inkscape:zoom="67.2"
     inkscape:cx="7.4130136"
     inkscape:cy="6.9999163"
     inkscape:window-x="1912"
     inkscape:window-y="-8"
     inkscape:window-maximized="1"
     inkscape:current-layer="svg4"
     inkscape:document-rotation="0" />
  <path
     d="m 3.1275536,13.499916 1.11711,-4.5294997 -3.74473605,-3.50493 4.94441605,-0.15629 1.93697,-4.80928004 1.93891,4.80928004 4.9443904,0.15629 -3.7476,3.50493 1.118,4.5294997 -4.2537004,-2.2662 -4.25376,2.2662"
     stroke="#ff9a08"
     stroke-linecap="round"
     stroke-linejoin="round"
     id="path2"
     style="fill:none;stroke:#cccccc;stroke-opacity:1" />
  <path
     d="m 3.1275536,13.499916 1.11711,-4.5294997 -3.744736,-3.50493 4.944416,-0.15629 1.93697,-4.80928004 1.93891,4.80928004 4.9443904,0.15629 -3.7476,3.50493 1.118,4.5294997 -4.2537004,-2.2662 -4.25376,2.2662"
     stroke="#ff9a08"
     stroke-linecap="round"
     stroke-linejoin="round"
     id="path2-7"
     style="fill:none;stroke:#ff9a08;stroke-opacity:1"
     mask="url(#mask876)" />
</svg>
